,birth_year,created,edited,eye_color,films,gender,hair_color,height,homeworld,mass,name,skin_color,species,starships,url,vehicles
0,54BBY,2014-12-19T18:00:41.929000Z,2014-12-20T21:17:50.403000Z,yellow,['https://swapi.co/api/films/4/'],male,none,175,https://swapi.co/api/planets/36/,80,Darth Maul,red,['https://swapi.co/api/species/22/'],['https://swapi.co/api/starships/41/'],https://swapi.co/api/people/44/,['https://swapi.co/api/vehicles/42/']
1,48BBY,2014-12-20T09:48:01.172000Z,2014-12-20T21:17:50.409000Z,hazel,"['https://swapi.co/api/films/5/', 'https://swapi.co/api/films/4/', 'https://swapi.co/api/films/6/']",female,none,178,https://swapi.co/api/planets/37/,55,Ayla Secura,blue,['https://swapi.co/api/species/15/'],[],https://swapi.co/api/people/46/,[]
2,92BBY,2014-12-20T10:15:32.293000Z,2014-12-20T21:17:50.422000Z,yellow,"['https://swapi.co/api/films/5/', 'https://swapi.co/api/films/4/', 'https://swapi.co/api/films/6/']",male,white,198,https://swapi.co/api/planets/43/,82,Ki-Adi-Mundi,pale,['https://swapi.co/api/species/20/'],[],https://swapi.co/api/people/52/,[]
3,72BBY,2014-12-20T10:12:30.846000Z,2014-12-20T21:17:50.420000Z,brown,"['https://swapi.co/api/films/5/', 'https://swapi.co/api/films/4/', 'https://swapi.co/api/films/6/']",male,none,188,https://swapi.co/api/planets/42/,84,Mace Windu,dark,['https://swapi.co/api/species/1/'],[],https://swapi.co/api/people/51/,[]
4,unknown,2014-12-20T10:08:33.777000Z,2014-12-20T21:17:50.417000Z,orange,['https://swapi.co/api/films/4/'],male,none,163,https://swapi.co/api/planets/41/,65,Ben Quadinaros,"grey, green, yellow",['https://swapi.co/api/species/19/'],[],https://swapi.co/api/people/50/,[]
5,unknown,2014-12-20T09:53:15.086000Z,2016-06-30T12:52:19.604868Z,unknown,['https://swapi.co/api/films/4/'],male,none,79,https://swapi.co/api/planets/38/,15,Ratts Tyerell,"grey, blue",['https://swapi.co/api/species/16/'],[],https://swapi.co/api/people/47/,[]
6,unknown,2014-12-20T09:57:31.858000Z,2014-12-20T21:17:50.414000Z,yellow,['https://swapi.co/api/films/4/'],male,none,94,https://swapi.co/api/planets/39/,45,Dud Bolt,"blue, grey",['https://swapi.co/api/species/17/'],[],https://swapi.co/api/people/48/,[]
7,unknown,2014-12-19T17:53:02.586000Z,2014-12-20T21:17:50.397000Z,orange,['https://swapi.co/api/films/4/'],male,none,112,https://swapi.co/api/planets/35/,40,Sebulba,"grey, red",['https://swapi.co/api/species/14/'],[],https://swapi.co/api/people/41/,[]
8,unknown,2014-12-19T17:32:56.741000Z,2014-12-20T21:17:50.385000Z,orange,['https://swapi.co/api/films/4/'],male,none,224,https://swapi.co/api/planets/8/,82,Roos Tarpals,grey,['https://swapi.co/api/species/12/'],[],https://swapi.co/api/people/37/,[]
9,19BBY,2014-12-09T13:50:51.644000Z,2014-12-20T21:17:56.891000Z,blue,"['https://swapi.co/api/films/2/', 'https://swapi.co/api/films/6/', 'https://swapi.co/api/films/3/', 'https://swapi.co/api/films/1/', 'https://swapi.co/api/films/7/']",male,blond,172,https://swapi.co/api/planets/1/,77,Luke Skywalker,fair,['https://swapi.co/api/species/1/'],"['https://swapi.co/api/starships/12/', 'https://swapi.co/api/starships/22/']",https://swapi.co/api/people/1/,"['https://swapi.co/api/vehicles/14/', 'https://swapi.co/api/vehicles/30/']"
10,112BBY,2014-12-10T15:10:51.357000Z,2014-12-20T21:17:50.309000Z,yellow,"['https://swapi.co/api/films/2/', 'https://swapi.co/api/films/5/', 'https://swapi.co/api/films/4/', 'https://swapi.co/api/films/6/', 'https://swapi.co/api/films/3/', 'https://swapi.co/api/films/1/']",n/a,n/a,167,https://swapi.co/api/planets/1/,75,C-3PO,gold,['https://swapi.co/api/species/2/'],[],https://swapi.co/api/people/2/,[]
11,33BBY,2014-12-10T15:11:50.376000Z,2014-12-20T21:17:50.311000Z,red,"['https://swapi.co/api/films/2/', 'https://swapi.co/api/films/5/', 'https://swapi.co/api/films/4/', 'https://swapi.co/api/films/6/', 'https://swapi.co/api/films/3/', 'https://swapi.co/api/films/1/', 'https://swapi.co/api/films/7/']",n/a,n/a,96,https://swapi.co/api/planets/8/,32,R2-D2,"white, blue",['https://swapi.co/api/species/2/'],[],https://swapi.co/api/people/3/,[]
12,41.9BBY,2014-12-10T15:18:20.704000Z,2014-12-20T21:17:50.313000Z,yellow,"['https://swapi.co/api/films/2/', 'https://swapi.co/api/films/6/', 'https://swapi.co/api/films/3/', 'https://swapi.co/api/films/1/']",male,none,202,https://swapi.co/api/planets/1/,136,Darth Vader,white,['https://swapi.co/api/species/1/'],['https://swapi.co/api/starships/13/'],https://swapi.co/api/people/4/,[]
13,19BBY,2014-12-10T15:20:09.791000Z,2014-12-20T21:17:50.315000Z,brown,"['https://swapi.co/api/films/2/', 'https://swapi.co/api/films/6/', 'https://swapi.co/api/films/3/', 'https://swapi.co/api/films/1/', 'https://swapi.co/api/films/7/']",female,brown,150,https://swapi.co/api/planets/2/,49,Leia Organa,light,['https://swapi.co/api/species/1/'],[],https://swapi.co/api/people/5/,['https://swapi.co/api/vehicles/30/']
14,52BBY,2014-12-10T15:52:14.024000Z,2014-12-20T21:17:50.317000Z,blue,"['https://swapi.co/api/films/5/', 'https://swapi.co/api/films/6/', 'https://swapi.co/api/films/1/']",male,"brown, grey",178,https://swapi.co/api/planets/1/,120,Owen Lars,light,['https://swapi.co/api/species/1/'],[],https://swapi.co/api/people/6/,[]
15,47BBY,2014-12-10T15:53:41.121000Z,2014-12-20T21:17:50.319000Z,blue,"['https://swapi.co/api/films/5/', 'https://swapi.co/api/films/6/', 'https://swapi.co/api/films/1/']",female,brown,165,https://swapi.co/api/planets/1/,75,Beru Whitesun lars,light,['https://swapi.co/api/species/1/'],[],https://swapi.co/api/people/7/,[]
16,unknown,2014-12-10T15:57:50.959000Z,2014-12-20T21:17:50.321000Z,red,['https://swapi.co/api/films/1/'],n/a,n/a,97,https://swapi.co/api/planets/1/,32,R5-D4,"white, red",['https://swapi.co/api/species/2/'],[],https://swapi.co/api/people/8/,[]
17,24BBY,2014-12-10T15:59:50.509000Z,2014-12-20T21:17:50.323000Z,brown,['https://swapi.co/api/films/1/'],male,black,183,https://swapi.co/api/planets/1/,84,Biggs Darklighter,light,['https://swapi.co/api/species/1/'],['https://swapi.co/api/starships/12/'],https://swapi.co/api/people/9/,[]
18,57BBY,2014-12-10T16:16:29.192000Z,2014-12-20T21:17:50.325000Z,blue-gray,"['https://swapi.co/api/films/2/', 'https://swapi.co/api/films/5/', 'https://swapi.co/api/films/4/', 'https://swapi.co/api/films/6/', 'https://swapi.co/api/films/3/', 'https://swapi.co/api/films/1/']",male,"auburn, white",182,https://swapi.co/api/planets/20/,77,Obi-Wan Kenobi,fair,['https://swapi.co/api/species/1/'],"['https://swapi.co/api/starships/48/', 'https://swapi.co/api/starships/59/', 'https://swapi.co/api/starships/64/', 'https://swapi.co/api/starships/65/', 'https://swapi.co/api/starships/74/']",https://swapi.co/api/people/10/,['https://swapi.co/api/vehicles/38/']
19,41.9BBY,2014-12-10T16:20:44.310000Z,2014-12-20T21:17:50.327000Z,blue,"['https://swapi.co/api/films/5/', 'https://swapi.co/api/films/4/', 'https://swapi.co/api/films/6/']",male,blond,188,https://swapi.co/api/planets/1/,84,Anakin Skywalker,fair,['https://swapi.co/api/species/1/'],"['https://swapi.co/api/starships/59/', 'https://swapi.co/api/starships/65/', 'https://swapi.co/api/starships/39/']",https://swapi.co/api/people/11/,"['https://swapi.co/api/vehicles/44/', 'https://swapi.co/api/vehicles/46/']"
20,200BBY,2014-12-10T16:42:45.066000Z,2014-12-20T21:17:50.332000Z,blue,"['https://swapi.co/api/films/2/', 'https://swapi.co/api/films/6/', 'https://swapi.co/api/films/3/', 'https://swapi.co/api/films/1/', 'https://swapi.co/api/films/7/']",male,brown,228,https://swapi.co/api/planets/14/,112,Chewbacca,unknown,['https://swapi.co/api/species/3/'],"['https://swapi.co/api/starships/10/', 'https://swapi.co/api/starships/22/']",https://swapi.co/api/people/13/,['https://swapi.co/api/vehicles/19/']
21,29BBY,2014-12-10T16:49:14.582000Z,2014-12-20T21:17:50.334000Z,brown,"['https://swapi.co/api/films/2/', 'https://swapi.co/api/films/3/', 'https://swapi.co/api/films/1/', 'https://swapi.co/api/films/7/']",male,brown,180,https://swapi.co/api/planets/22/,80,Han Solo,fair,['https://swapi.co/api/species/1/'],"['https://swapi.co/api/starships/10/', 'https://swapi.co/api/starships/22/']",https://swapi.co/api/people/14/,[]
22,44BBY,2014-12-10T17:03:30.334000Z,2014-12-20T21:17:50.336000Z,black,['https://swapi.co/api/films/1/'],male,n/a,173,https://swapi.co/api/planets/23/,74,Greedo,green,['https://swapi.co/api/species/4/'],[],https://swapi.co/api/people/15/,[]
23,21BBY,2014-12-12T11:08:06.469000Z,2014-12-20T21:17:50.341000Z,hazel,"['https://swapi.co/api/films/2/', 'https://swapi.co/api/films/3/', 'https://swapi.co/api/films/1/']",male,brown,170,https://swapi.co/api/planets/22/,77,Wedge Antilles,fair,['https://swapi.co/api/species/1/'],['https://swapi.co/api/starships/12/'],https://swapi.co/api/people/18/,['https://swapi.co/api/vehicles/14/']
24,unknown,2014-12-12T11:16:56.569000Z,2014-12-20T21:17:50.343000Z,blue,['https://swapi.co/api/films/1/'],male,brown,180,https://swapi.co/api/planets/26/,110,Jek Tono Porkins,fair,['https://swapi.co/api/species/1/'],['https://swapi.co/api/starships/12/'],https://swapi.co/api/people/19/,[]
25,896BBY,2014-12-15T12:26:01.042000Z,2014-12-20T21:17:50.345000Z,brown,"['https://swapi.co/api/films/2/', 'https://swapi.co/api/films/5/', 'https://swapi.co/api/films/4/', 'https://swapi.co/api/films/6/', 'https://swapi.co/api/films/3/']",male,white,66,https://swapi.co/api/planets/28/,17,Yoda,green,['https://swapi.co/api/species/6/'],[],https://swapi.co/api/people/20/,[]
26,82BBY,2014-12-15T12:48:05.971000Z,2014-12-20T21:17:50.347000Z,yellow,"['https://swapi.co/api/films/2/', 'https://swapi.co/api/films/5/', 'https://swapi.co/api/films/4/', 'https://swapi.co/api/films/6/', 'https://swapi.co/api/films/3/']",male,grey,170,https://swapi.co/api/planets/8/,75,Palpatine,pale,['https://swapi.co/api/species/1/'],[],https://swapi.co/api/people/21/,[]
27,31.5BBY,2014-12-15T12:49:32.457000Z,2014-12-20T21:17:50.349000Z,brown,"['https://swapi.co/api/films/2/', 'https://swapi.co/api/films/5/', 'https://swapi.co/api/films/3/']",male,black,183,https://swapi.co/api/planets/10/,78.2,Boba Fett,fair,['https://swapi.co/api/species/1/'],['https://swapi.co/api/starships/21/'],https://swapi.co/api/people/22/,[]
28,15BBY,2014-12-15T12:51:10.076000Z,2014-12-20T21:17:50.351000Z,red,['https://swapi.co/api/films/2/'],none,none,200,https://swapi.co/api/planets/28/,140,IG-88,metal,['https://swapi.co/api/species/2/'],[],https://swapi.co/api/people/23/,[]
29,46BBY,2014-12-19T17:28:26.926000Z,2016-04-20T17:06:31.502555Z,brown,"['https://swapi.co/api/films/5/', 'https://swapi.co/api/films/4/', 'https://swapi.co/api/films/6/']",female,brown,165,https://swapi.co/api/planets/8/,45,Padmé Amidala,light,['https://swapi.co/api/species/1/'],"['https://swapi.co/api/starships/49/', 'https://swapi.co/api/starships/64/', 'https://swapi.co/api/starships/39/']",https://swapi.co/api/people/35/,[]
30,52BBY,2014-12-19T17:29:32.489000Z,2014-12-20T21:17:50.383000Z,orange,"['https://swapi.co/api/films/5/', 'https://swapi.co/api/films/4/']",male,none,196,https://swapi.co/api/planets/8/,66,Jar Jar Binks,orange,['https://swapi.co/api/species/12/'],[],https://swapi.co/api/people/36/,[]
31,31BBY,2014-12-15T12:56:32.683000Z,2014-12-20T21:17:50.357000Z,brown,"['https://swapi.co/api/films/2/', 'https://swapi.co/api/films/3/']",male,black,177,https://swapi.co/api/planets/30/,79,Lando Calrissian,dark,['https://swapi.co/api/species/1/'],['https://swapi.co/api/starships/10/'],https://swapi.co/api/people/25/,[]
32,unknown,2014-12-18T11:26:18.541000Z,2014-12-20T21:17:50.371000Z,black,['https://swapi.co/api/films/3/'],male,none,160,https://swapi.co/api/planets/33/,68,Nien Nunb,grey,['https://swapi.co/api/species/10/'],['https://swapi.co/api/starships/10/'],https://swapi.co/api/people/31/,[]
33,92BBY,2014-12-19T16:54:53.618000Z,2014-12-20T21:17:50.375000Z,blue,['https://swapi.co/api/films/4/'],male,brown,193,https://swapi.co/api/planets/28/,89,Qui-Gon Jinn,fair,['https://swapi.co/api/species/1/'],[],https://swapi.co/api/people/32/,['https://swapi.co/api/vehicles/38/']
34,unknown,2014-12-19T17:05:57.357000Z,2014-12-20T21:17:50.377000Z,red,"['https://swapi.co/api/films/5/', 'https://swapi.co/api/films/4/', 'https://swapi.co/api/films/6/']",male,none,191,https://swapi.co/api/planets/18/,90,Nute Gunray,mottled green,['https://swapi.co/api/species/11/'],[],https://swapi.co/api/people/33/,[]
35,41BBY,2014-12-18T11:07:50.584000Z,2014-12-20T21:17:50.362000Z,orange,"['https://swapi.co/api/films/3/', 'https://swapi.co/api/films/7/']",male,none,180,https://swapi.co/api/planets/31/,83,Ackbar,brown mottle,['https://swapi.co/api/species/8/'],[],https://swapi.co/api/people/27/,[]
36,8BBY,2014-12-18T11:21:58.954000Z,2014-12-20T21:17:50.369000Z,brown,['https://swapi.co/api/films/3/'],male,brown,88,https://swapi.co/api/planets/7/,20,Wicket Systri Warrick,brown,['https://swapi.co/api/species/9/'],[],https://swapi.co/api/people/30/,[]
37,53BBY,2014-12-15T12:53:49.297000Z,2014-12-20T21:17:50.355000Z,red,['https://swapi.co/api/films/2/'],male,none,190,https://swapi.co/api/planets/29/,113,Bossk,green,['https://swapi.co/api/species/7/'],[],https://swapi.co/api/people/24/,[]
38,37BBY,2014-12-15T13:01:57.178000Z,2014-12-20T21:17:50.359000Z,blue,['https://swapi.co/api/films/2/'],male,none,175,https://swapi.co/api/planets/6/,79,Lobot,light,['https://swapi.co/api/species/1/'],[],https://swapi.co/api/people/26/,[]
39,unknown,2014-12-20T10:18:57.202000Z,2014-12-20T21:17:50.424000Z,black,"['https://swapi.co/api/films/5/', 'https://swapi.co/api/films/4/', 'https://swapi.co/api/films/6/']",male,none,196,https://swapi.co/api/planets/44/,87,Kit Fisto,green,['https://swapi.co/api/species/21/'],[],https://swapi.co/api/people/53/,[]
40,unknown,2014-12-20T10:29:11.661000Z,2014-12-20T21:17:50.432000Z,blue,"['https://swapi.co/api/films/4/', 'https://swapi.co/api/films/6/']",female,none,184,https://swapi.co/api/planets/9/,50,Adi Gallia,dark,['https://swapi.co/api/species/23/'],[],https://swapi.co/api/people/55/,[]
41,22BBY,2014-12-20T10:49:19.859000Z,2014-12-20T21:17:50.439000Z,black,"['https://swapi.co/api/films/5/', 'https://swapi.co/api/films/4/', 'https://swapi.co/api/films/6/']",male,none,188,https://swapi.co/api/planets/49/,80,Plo Koon,orange,['https://swapi.co/api/species/26/'],['https://swapi.co/api/starships/48/'],https://swapi.co/api/people/58/,[]
42,unknown,2014-12-20T11:10:10.381000Z,2014-12-20T21:17:50.445000Z,brown,['https://swapi.co/api/films/5/'],male,black,185,https://swapi.co/api/planets/8/,85,Gregar Typho,dark,['https://swapi.co/api/species/1/'],['https://swapi.co/api/starships/39/'],https://swapi.co/api/people/60/,[]
43,unknown,2014-12-20T16:40:43.977000Z,2014-12-20T21:17:50.453000Z,yellow,"['https://swapi.co/api/films/5/', 'https://swapi.co/api/films/6/']",male,none,183,https://swapi.co/api/planets/11/,80,Poggle the Lesser,green,['https://swapi.co/api/species/28/'],[],https://swapi.co/api/people/63/,[]
44,58BBY,2014-12-20T16:45:53.668000Z,2014-12-20T21:17:50.455000Z,blue,"['https://swapi.co/api/films/5/', 'https://swapi.co/api/films/6/']",female,black,170,https://swapi.co/api/planets/51/,56.2,Luminara Unduli,yellow,['https://swapi.co/api/species/29/'],[],https://swapi.co/api/people/64/,[]
45,40BBY,2014-12-20T16:46:40.440000Z,2014-12-20T21:17:50.457000Z,blue,['https://swapi.co/api/films/5/'],female,black,166,https://swapi.co/api/planets/51/,50,Barriss Offee,yellow,['https://swapi.co/api/species/29/'],[],https://swapi.co/api/people/65/,[]
46,102BBY,2014-12-20T16:52:14.726000Z,2014-12-20T21:17:50.462000Z,brown,"['https://swapi.co/api/films/5/', 'https://swapi.co/api/films/6/']",male,white,193,https://swapi.co/api/planets/52/,80,Dooku,fair,['https://swapi.co/api/species/1/'],[],https://swapi.co/api/people/67/,['https://swapi.co/api/vehicles/55/']
47,66BBY,2014-12-20T16:54:41.620000Z,2014-12-20T21:17:50.465000Z,brown,['https://swapi.co/api/films/5/'],male,black,183,https://swapi.co/api/planets/53/,79,Jango Fett,tan,['https://swapi.co/api/species/1/'],[],https://swapi.co/api/people/69/,[]
48,unknown,2014-12-20T16:57:44.471000Z,2014-12-20T21:17:50.468000Z,yellow,['https://swapi.co/api/films/5/'],female,blonde,168,https://swapi.co/api/planets/54/,55,Zam Wesell,"fair, green, yellow",['https://swapi.co/api/species/30/'],[],https://swapi.co/api/people/70/,['https://swapi.co/api/vehicles/45/']
49,unknown,2014-12-20T17:28:27.248000Z,2014-12-20T21:17:50.470000Z,yellow,['https://swapi.co/api/films/5/'],male,none,198,https://swapi.co/api/planets/55/,102,Dexter Jettster,brown,['https://swapi.co/api/species/31/'],[],https://swapi.co/api/people/71/,[]
50,unknown,2014-12-20T17:30:50.416000Z,2014-12-20T21:17:50.473000Z,black,['https://swapi.co/api/films/5/'],male,none,229,https://swapi.co/api/planets/10/,88,Lama Su,grey,['https://swapi.co/api/species/32/'],[],https://swapi.co/api/people/72/,[]
51,unknown,2014-12-20T17:53:52.607000Z,2014-12-20T21:17:50.481000Z,unknown,['https://swapi.co/api/films/5/'],male,none,193,https://swapi.co/api/planets/56/,48,Wat Tambor,"green, grey",['https://swapi.co/api/species/33/'],[],https://swapi.co/api/people/76/,[]
52,unknown,2014-12-20T18:44:01.103000Z,2014-12-20T21:17:50.486000Z,black,"['https://swapi.co/api/films/5/', 'https://swapi.co/api/films/6/']",female,none,178,https://swapi.co/api/planets/58/,57,Shaak Ti,"red, blue, white",['https://swapi.co/api/species/35/'],[],https://swapi.co/api/people/78/,[]
53,unknown,2014-12-20T19:43:53.348000Z,2014-12-20T21:17:50.488000Z,"green, yellow",['https://swapi.co/api/films/6/'],male,none,216,https://swapi.co/api/planets/59/,159,Grievous,"brown, white",['https://swapi.co/api/species/36/'],['https://swapi.co/api/starships/74/'],https://swapi.co/api/people/79/,['https://swapi.co/api/vehicles/60/']
54,unknown,2014-12-20T19:46:34.209000Z,2014-12-20T21:17:50.491000Z,blue,['https://swapi.co/api/films/6/'],male,brown,234,https://swapi.co/api/planets/14/,136,Tarfful,brown,['https://swapi.co/api/species/3/'],[],https://swapi.co/api/people/80/,[]
55,unknown,2014-12-20T19:49:35.583000Z,2014-12-20T21:17:50.493000Z,brown,"['https://swapi.co/api/films/6/', 'https://swapi.co/api/films/1/']",male,brown,188,https://swapi.co/api/planets/2/,79,Raymus Antilles,light,['https://swapi.co/api/species/1/'],[],https://swapi.co/api/people/81/,[]
56,unknown,2014-12-20T20:18:37.619000Z,2014-12-20T21:17:50.496000Z,white,"['https://swapi.co/api/films/5/', 'https://swapi.co/api/films/6/']",female,none,178,https://swapi.co/api/planets/60/,48,Sly Moore,pale,[],[],https://swapi.co/api/people/82/,[]
57,unknown,2014-12-20T20:35:04.260000Z,2014-12-20T21:17:50.498000Z,black,['https://swapi.co/api/films/6/'],male,none,206,https://swapi.co/api/planets/12/,80,Tion Medon,grey,['https://swapi.co/api/species/37/'],[],https://swapi.co/api/people/83/,[]
